{
  "schemaVersion": 1,
  "id": "farmersdelight",
  "version": "${version}",
  "name": "Farmer's Delight",
  "description": "Fabric port for the awesome Farmer's Delight Forge mod!",
  "authors": [
    "Zifiv",
    "vectorwing",
    "StevenPlayzz"
  ],
  "contact": {
    "homepage": "https://bitbucket.org/n-horyzon/farmers-delight-fabric",
    "sources": "https://bitbucket.org/n-horyzon/farmers-delight-fabric"
  },
  "license": "MIT License",
  "icon": "assets/farmersdelight/icon.png",
  "environment": "*",
  "entrypoints": {
    "main": [
      "com.nhoryzon.mc.farmersdelight.FarmersDelightMod"
    ],
    "client": [
      "com.nhoryzon.mc.farmersdelight.FarmersDelightModClient"
    ],
    "rei_plugins": [
      "com.nhoryzon.mc.farmersdelight.integration.rei.FarmersDelightModREI"
    ]
  },
  "mixins": [
    "farmersdelight.mixins.json"
  ],
  "depends": {
    "fabricloader": ">=0.12.8",
    "fabric": ">=0.43.1+1.18",
    "minecraft": "1.18.x"
  },
  "suggests": {
  }
}