{
  "type": "farmersdelight:cutting",
  "ingredients": [
    {
      "item": "minecraft:cooked_mutton"
    }
  ],
  "tool": {
    "tag": "fabric:tools/knives"
  },
  "result": [
    {
      "item": "farmersdelight:cooked_mutton_chops",
      "count": 2
    }
  ]
}